﻿handle,sku,price,compare_at_price
test-product,TESTPRODUCT2018,102,152
test-product,TESTPRODUCT2019,150,200
test-product,TESTPRODUCT2020,200,250
test-product,TESTPRODUCT2021,250,300
test-product,TESTPRODUCT2022,300,350
test-product,TESTPRODUCT2023,350,400
test-product,TESTPRODUCT2024,400,450
test-product,TESTPRODUCT2025,450,500
test-product,TESTPRODUCT2026,500,550